[
    {
        "id": 1,
        "title": "Schleswig-Holstein",
        "internet": "https://www.datenschutzzentrum.de/formular/beschwerde.php",
        "email": "mail@datenschutzzentrum.de"
    },
    {
        "id": 2,
        "title": "Hamburg",
        "internet": "https://datenschutz-hamburg.de/beschwerde/",
        "email": "mailbox@datenschutz.hamburg.de"
    },
    {
        "id": 3,
        "title": "Niedersachsen",
        "internet": "https://www.navo.niedersachsen.de/navo2/portal/csend/8915/fileget/dsbeschwerdeformular.html",
        "email": "poststelle@lfd.niedersachsen.de"
    },
    {
        "id": 4,
        "title": "Bremen und Bremerhaven",
        "internet": "https://www.datenschutz.bremen.de/detail.php?gsid=bremen236.c.15253.de",
        "email": "office@datenschutz.bremen.de"
    },
    {
        "id": 5,
        "title": "Nordrhein-Westfalen",
        "internet": "https://www.ldi.nrw.de/mainmenu_Aktuelles/Formulare-und-Meldungen/Inhalt2/Beschwerde/Beschwerdeformular1.pdf",
        "email": "poststelle@ldi.nrw.de"
    },
    {
        "id": 6,
        "title": "Hessen",
        "internet": "https://datenschutz.hessen.de/service/beschwerde",
        "email": "poststelle@datenschutz.hessen.de"
    },
    {
        "id": 7,
        "title": "Rheinland-Pfalz",
        "internet": "https://www.datenschutz.rlp.de/de/themenfelder-themen/online-services/beschwerdeformular/",
        "email": "poststelle@datenschutz.rlp.de"
    },
    {
        "id": 8,
        "title": "Baden-Württemberg",
        "internet": "https://www.baden-wuerttemberg.datenschutz.de/online-beschwerde/",
        "email": "poststelle@lfd.bwl.de"
    },
    {
        "id": 9,
        "title": "Bayern",
        "internet": "https://www.lda.bayern.de/de/beschwerde.html",
        "email": "poststelle@lda.bayern.de"
    },
    {
        "id": 10,
        "title": "Saarland",
        "internet": "https://www.datenschutz.saarland.de/online-services/online-beschwerde#c128",
        "email": "poststelle@datenschutz.saarland.de"
    },
    {
        "id": 11,
        "title": "Berlin",
        "internet": "https://kontakt.datenschutz-berlin.de/",
        "email": "mailbox@datenschutz-berlin.de"
    },
    {
        "id": 12,
        "title": "Brandenburg",
        "internet": "https://www.lda.brandenburg.de/de/beschwerdeformular",
        "email": "Poststelle@LDA.Brandenburg.de"
    },
    {
        "id": 13,
        "title": "Mecklenburg-Vorpommern",
        "internet": "https://www.datenschutz-mv.de/kontakt/online-beschwerdeformular-mitteilung-ueber-einen-datenschutzverstoss/",
        "email": "info@datenschutz-mv.de"
    },
    {
        "id": 14,
        "title": "Sachsen",
        "internet": "https://www.saechsdsb.de/petition",
        "email": "saechsdsb@slt.sachsen.de"
    },
    {
        "id": 15,
        "title": "Sachsen-Anhalt",
        "internet": "https://datenschutz.sachsen-anhalt.de/service/online-formulare/beschwerde-anfrage/?no_cache=1",
        "email": "poststelle@lfd.sachsen-anhalt.de"
    },
    {
        "id": 16,
        "title": "Thüringen",
        "internet": "https://www.tlfdi.de/tlfdi/kontakt/",
        "email": "poststelle@datenschutz.thueringen.de"
    }
]